{
	"info": {
		"_postman_id": "a1a4c162-6466-4867-86d9-da09d07ccca0",
		"name": "GOGOTECH - Lottery System",
		"schema": "https://schema.getpostman.com/json/collection/v2.1.0/collection.json"
	},
	"item": [
		{
			"name": "Purchase new ticket",
			"request": {
				"method": "POST",
				"header": [],
				"body": {
					"mode": "raw",
					"raw": "{\r\n    \"contestantId\": \"1\",\r\n    \"authentication\": \"dummy\"\r\n}",
					"options": {
						"raw": {
							"language": "json"
						}
					}
				},
				"url": {
					"raw": "{{host}}/lottery/purchase",
					"host": [
						"{{host}}"
					],
					"path": [
						"lottery",
						"purchase"
					]
				}
			},
			"response": []
		},
		{
			"name": "Enquire Draw Result",
			"request": {
				"method": "GET",
				"header": [],
				"url": {
					"raw": "{{host}}/lottery/result?drawId=12",
					"host": [
						"{{host}}"
					],
					"path": [
						"lottery",
						"result"
					],
					"query": [
						{
							"key": "drawId",
							"value": "12"
						}
					]
				}
			},
			"response": []
		}
	],
	"event": [
		{
			"listen": "prerequest",
			"script": {
				"type": "text/javascript",
				"exec": [
					""
				]
			}
		},
		{
			"listen": "test",
			"script": {
				"type": "text/javascript",
				"exec": [
					""
				]
			}
		}
	],
	"variable": [
		{
			"key": "host",
			"value": "http://localhost:8080",
			"type": "string"
		}
	]
}